4 Daten einlesen | 02_Aufgaben
…
## # A tibble: 0 x 7
## # … with 7 variables: ...1 <chr>, ...2 <chr>,
## #   ...3 <chr>, ...4 <chr>, `All persons9` <dbl>,
## #   Male <dbl>, Female <dbl>

…in unserem Fall vielleicht ein bisschen zu rigoros

4.0.19 Umgang mit fehlenden Werten

Die zweite Möglichkeit ist replace_na, eine Funktion die, wie der Name schon sagt, NAs durch festgelegte Werte ersetzen kann. Mit einem mutate_if kombiniert, können wir so alle fehlenden Zahlen im Datensatz durch 0 ersetzen:

drugs %>% 
  mutate_if(is.numeric,~replace_na(.,0))

## # A tibble: 195 x 7
##   ...1  ...2  ...3  ...4  `All persons9`  Male
##   <chr> <chr> <chr> <chr>          <dbl> <dbl>
## 1 <NA>  <NA>  <NA>  <NA>               0     0
## 2 E920… <NA>  <NA>  Engl…           7139  5294
## 3 <NA>  <NA>  <NA>  <NA>               0     0
## 4 U     <NA>  U     Unkn…            244   202
## 5 <NA>  <NA>  <NA>  <NA>               0     0
## # … with 190 more rows, and 1 more variable:
## #   Female <dbl>

4.0.20 Umgang mit fehlenden Werten

Jetzt können wir noch die fehlenden character umgewandeln:

drugs <- drugs %>% 
  mutate_if(is.numeric,~replace_na(.,0)) %>% 
  mutate_if(is.character,~replace_na(.,''))
drugs

## # A tibble: 195 x 7
##   ...1  ...2  ...3  ...4  `All persons9`  Male
##   <chr> <chr> <chr> <chr>          <dbl> <dbl>
## 1 ""    ""    ""    ""                 0     0
## 2 "E92… ""    ""    "Eng…           7139  5294
## 3 ""    ""    ""    ""                 0     0
## 4 "U"   ""    "U"   "Unk…            244   202
## 5 ""    ""    ""    ""                 0     0
## # … with 190 more rows, and 1 more variable:
## #   Female <dbl>
…
sum ist keine vektorisierte Funktion! Um eine neue Summenwert pro Zeile zu bilden, sind + und / nötig

4.0.26 Zusammenführen von Datensätzen

Jetzt müssen wir das ganze nur noch zusammenfügen. Dafür benutzen wir die Familien der join-Funktionen

Zuerst fügen wir die Anzahl der Straftaten zu der Anzahl der Krankenhauseinweisungen hinzu. Dabei matchen wir die Regionen über das Regions-Schlüsselwort und behalten nur die Fälle, in denen in beiden Datensätzen ein Schlüsselwort auftaucht:

overall <- drugs %>% 
  inner_join(crime, by = c('...4' = 'Force'))
overall

## # A tibble: 21 x 5
##   ...1  ...4  `All persons9` HOMICIDE
##   <chr> <chr>          <dbl>    <dbl>
## 1 E100… Cumb…             72        7
## 2 E100… Lanc…            214       16
## 3 E100… Nort…             44        9
## 4 E100… Derb…             81        4
## 5 E100… Leic…             56        6
## # … with 16 more rows, and 1 more variable:
## #   `Attempted murder` <dbl>

4.0.27 Zusammenführen von Datensätzen

Dem overall-Datensatz fügen wir jetzt noch die satisfaction hinzu. Hierzu nutzen wir die ONS-Codes. Dabei wollen wir alle Fälle in overall behalten:

overall <- overall %>% 
  left_join(satisfaction, by = c('...1' = 'Code'))
overall

## # A tibble: 21 x 6
##   ...1  ...4  `All persons9` HOMICIDE
##   <chr> <chr>          <dbl>    <dbl>
## 1 E100… Cumb…             72        7
## 2 E100… Lanc…            214       16
## 3 E100… Nort…             44        9
## 4 E100… Derb…             81        4
## 5 E100… Leic…             56        6
## # … with 16 more rows, and 2 more variables:
## #   `Attempted murder` <dbl>, Satisfaction <dbl>
…
overall <- overall %>% 
  rename('ONS_Code' = '...1',
         'region' = '...4',
         'admissions' = 'All persons9',
         'homicide' = 'HOMICIDE')

4.0.29 Zusammenführen von Datensätzen

Damit ist unser Datensatz fertig:

overall

## # A tibble: 21 x 6
##   ONS_Code region admissions homicide
##   <chr>    <chr>       <dbl>    <dbl>
## 1 E100000… Cumbr…         72        7
## 2 E100000… Lanca…        214       16
## 3 E100000… North…         44        9
## 4 E100000… Derby…         81        4
## 5 E100000… Leice…         56        6
## # … with 16 more rows, and 2 more variables:
## #   `Attempted murder` <dbl>, Satisfaction <dbl>
…
